GNU LilyPond 2.18.2
Changing working directory to: `TEMP-an-introduction-to-chromatic-solfege-01012-melodic-03'
Processing `an-introduction-to-chromatic-solfege-01012-melodic-03.ly'
Parsing...
Interpreting music...
Interpreting music...
Preprocessing graphical objects...
MIDI output to `an-introduction-to-chromatic-solfege-01012-melodic-03.midi'...
Calculating line breaks... 
Drawing systems... 
Layout output to `an-introduction-to-chromatic-solfege-01012-melodic-03.eps'...
Converting to `./an-introduction-to-chromatic-solfege-01012-melodic-03.pdf'...
Layout output to `an-introduction-to-chromatic-solfege-01012-melodic-03-1.eps'...
Converting to `./an-introduction-to-chromatic-solfege-01012-melodic-03-1.pdf'...
Writing an-introduction-to-chromatic-solfege-01012-melodic-03-systems.texi...
Writing an-introduction-to-chromatic-solfege-01012-melodic-03-systems.tex...
Writing an-introduction-to-chromatic-solfege-01012-melodic-03-systems.count...
Success: compilation successfully completed
