GNU LilyPond 2.18.2
Changing working directory to: `TEMP-an-introduction-to-chromatic-solfege-00213-ta'
Processing `an-introduction-to-chromatic-solfege-00213-ta.ly'
Parsing...
Interpreting music...
Interpreting music...
Preprocessing graphical objects...
MIDI output to `an-introduction-to-chromatic-solfege-00213-ta.midi'...
Calculating line breaks... 
Drawing systems... 
Layout output to `an-introduction-to-chromatic-solfege-00213-ta.eps'...
Converting to `./an-introduction-to-chromatic-solfege-00213-ta.pdf'...
Layout output to `an-introduction-to-chromatic-solfege-00213-ta-1.eps'...
Converting to `./an-introduction-to-chromatic-solfege-00213-ta-1.pdf'...
Writing an-introduction-to-chromatic-solfege-00213-ta-systems.texi...
Writing an-introduction-to-chromatic-solfege-00213-ta-systems.tex...
Writing an-introduction-to-chromatic-solfege-00213-ta-systems.count...
Success: compilation successfully completed
