GNU LilyPond 2.18.2
Changing working directory to: `TEMP-an-introduction-to-chromatic-solfege-00223-sao'
Processing `an-introduction-to-chromatic-solfege-00223-sao.ly'
Parsing...
Interpreting music...
Interpreting music...
Preprocessing graphical objects...
MIDI output to `an-introduction-to-chromatic-solfege-00223-sao.midi'...
Calculating line breaks... 
Drawing systems... 
Layout output to `an-introduction-to-chromatic-solfege-00223-sao.eps'...
Converting to `./an-introduction-to-chromatic-solfege-00223-sao.pdf'...
Layout output to `an-introduction-to-chromatic-solfege-00223-sao-1.eps'...
Converting to `./an-introduction-to-chromatic-solfege-00223-sao-1.pdf'...
Writing an-introduction-to-chromatic-solfege-00223-sao-systems.texi...
Writing an-introduction-to-chromatic-solfege-00223-sao-systems.tex...
Writing an-introduction-to-chromatic-solfege-00223-sao-systems.count...
Success: compilation successfully completed
