GNU LilyPond 2.18.2
Changing working directory to: `TEMP-an-introduction-to-chromatic-solfege-00224-rao'
Processing `an-introduction-to-chromatic-solfege-00224-rao.ly'
Parsing...
Interpreting music...
Interpreting music...
Preprocessing graphical objects...
MIDI output to `an-introduction-to-chromatic-solfege-00224-rao.midi'...
Calculating line breaks... 
Drawing systems... 
Layout output to `an-introduction-to-chromatic-solfege-00224-rao.eps'...
Converting to `./an-introduction-to-chromatic-solfege-00224-rao.pdf'...
Layout output to `an-introduction-to-chromatic-solfege-00224-rao-1.eps'...
Converting to `./an-introduction-to-chromatic-solfege-00224-rao-1.pdf'...
Writing an-introduction-to-chromatic-solfege-00224-rao-systems.texi...
Writing an-introduction-to-chromatic-solfege-00224-rao-systems.tex...
Writing an-introduction-to-chromatic-solfege-00224-rao-systems.count...
Success: compilation successfully completed
