GNU LilyPond 2.18.2
Changing working directory to: `TEMP-an-introduction-to-chromatic-solfege-00121-enharmonic-double-sharp-ns'
Processing `an-introduction-to-chromatic-solfege-00121-enharmonic-double-sharp-ns.ly'
Parsing...
Interpreting music...
Interpreting music...
Preprocessing graphical objects...
MIDI output to `an-introduction-to-chromatic-solfege-00121-enharmonic-double-sharp-ns.midi'...
Calculating line breaks... 
Drawing systems... 
Layout output to `an-introduction-to-chromatic-solfege-00121-enharmonic-double-sharp-ns.eps'...
Converting to `./an-introduction-to-chromatic-solfege-00121-enharmonic-double-sharp-ns.pdf'...
Layout output to `an-introduction-to-chromatic-solfege-00121-enharmonic-double-sharp-ns-1.eps'...
Layout output to `an-introduction-to-chromatic-solfege-00121-enharmonic-double-sharp-ns-2.eps'...
Converting to `./an-introduction-to-chromatic-solfege-00121-enharmonic-double-sharp-ns-1.pdf'...
Converting to `./an-introduction-to-chromatic-solfege-00121-enharmonic-double-sharp-ns-2.pdf'...
Writing an-introduction-to-chromatic-solfege-00121-enharmonic-double-sharp-ns-systems.texi...
Writing an-introduction-to-chromatic-solfege-00121-enharmonic-double-sharp-ns-systems.tex...
Writing an-introduction-to-chromatic-solfege-00121-enharmonic-double-sharp-ns-systems.count...
Success: compilation successfully completed
