GNU LilyPond 2.18.2
Changing working directory to: `TEMP-an-introduction-to-chromatic-solfege-00209-si'
Processing `an-introduction-to-chromatic-solfege-00209-si.ly'
Parsing...
Interpreting music...
Interpreting music...
Preprocessing graphical objects...
MIDI output to `an-introduction-to-chromatic-solfege-00209-si.midi'...
Calculating line breaks... 
Drawing systems... 
Layout output to `an-introduction-to-chromatic-solfege-00209-si.eps'...
Converting to `./an-introduction-to-chromatic-solfege-00209-si.pdf'...
Layout output to `an-introduction-to-chromatic-solfege-00209-si-1.eps'...
Converting to `./an-introduction-to-chromatic-solfege-00209-si-1.pdf'...
Writing an-introduction-to-chromatic-solfege-00209-si-systems.texi...
Writing an-introduction-to-chromatic-solfege-00209-si-systems.tex...
Writing an-introduction-to-chromatic-solfege-00209-si-systems.count...
Success: compilation successfully completed
