\version "2.18.2"
\include "aaron.ly"
\include "chromatic-template.ly"
\include "lilypond-book-preamble.ly"
\language "aaron"

	\makescore 
  \relative do' {
	\absolute { daw' raw' maw' faw' saw' law' taw' daw''  \bar "|"  daw'' taw' law' saw' faw' maw' raw' daw' }
  }
  #'(( festival-tempo . 150 )( festival-voice . voice_us2_mbrola )( do-compile . #t )( do-play . #f ))

\paper  {
	#(set! paper-alist (cons '("a4insides" . (cons (* 8 in) (* 3 in))) paper-alist))
	#(set-paper-size "a4insides")
}

