GNU LilyPond 2.18.2
Changing working directory to: `TEMP-an-introduction-to-chromatic-solfege-00094-chromatic-03-01'
Processing `an-introduction-to-chromatic-solfege-00094-chromatic-03-01.ly'
Parsing...
Interpreting music...
Interpreting music...
Preprocessing graphical objects...
MIDI output to `an-introduction-to-chromatic-solfege-00094-chromatic-03-01.midi'...
Calculating line breaks... 
Drawing systems... 
Layout output to `an-introduction-to-chromatic-solfege-00094-chromatic-03-01.eps'...
Converting to `./an-introduction-to-chromatic-solfege-00094-chromatic-03-01.pdf'...
Layout output to `an-introduction-to-chromatic-solfege-00094-chromatic-03-01-1.eps'...
Layout output to `an-introduction-to-chromatic-solfege-00094-chromatic-03-01-2.eps'...
Converting to `./an-introduction-to-chromatic-solfege-00094-chromatic-03-01-1.pdf'...
Converting to `./an-introduction-to-chromatic-solfege-00094-chromatic-03-01-2.pdf'...
Writing an-introduction-to-chromatic-solfege-00094-chromatic-03-01-systems.texi...
Writing an-introduction-to-chromatic-solfege-00094-chromatic-03-01-systems.tex...
Writing an-introduction-to-chromatic-solfege-00094-chromatic-03-01-systems.count...
Success: compilation successfully completed
