GNU LilyPond 2.18.2
Changing working directory to: `TEMP-an-introduction-to-chromatic-solfege-00201-do'
Processing `an-introduction-to-chromatic-solfege-00201-do.ly'
Parsing...
Interpreting music...
Interpreting music...
Preprocessing graphical objects...
MIDI output to `an-introduction-to-chromatic-solfege-00201-do.midi'...
Calculating line breaks... 
Drawing systems... 
Layout output to `an-introduction-to-chromatic-solfege-00201-do.eps'...
Converting to `./an-introduction-to-chromatic-solfege-00201-do.pdf'...
Layout output to `an-introduction-to-chromatic-solfege-00201-do-1.eps'...
Converting to `./an-introduction-to-chromatic-solfege-00201-do-1.pdf'...
Writing an-introduction-to-chromatic-solfege-00201-do-systems.texi...
Writing an-introduction-to-chromatic-solfege-00201-do-systems.tex...
Writing an-introduction-to-chromatic-solfege-00201-do-systems.count...
Success: compilation successfully completed
