GNU LilyPond 2.18.2
Changing working directory to: `TEMP-an-introduction-to-chromatic-solfege-00116-enharmonic-double-flat-nf'
Processing `an-introduction-to-chromatic-solfege-00116-enharmonic-double-flat-nf.ly'
Parsing...
Interpreting music...
Interpreting music...
Preprocessing graphical objects...
MIDI output to `an-introduction-to-chromatic-solfege-00116-enharmonic-double-flat-nf.midi'...
Calculating line breaks... 
Drawing systems... 
Layout output to `an-introduction-to-chromatic-solfege-00116-enharmonic-double-flat-nf.eps'...
Converting to `./an-introduction-to-chromatic-solfege-00116-enharmonic-double-flat-nf.pdf'...
Layout output to `an-introduction-to-chromatic-solfege-00116-enharmonic-double-flat-nf-1.eps'...
Layout output to `an-introduction-to-chromatic-solfege-00116-enharmonic-double-flat-nf-2.eps'...
Converting to `./an-introduction-to-chromatic-solfege-00116-enharmonic-double-flat-nf-1.pdf'...
Converting to `./an-introduction-to-chromatic-solfege-00116-enharmonic-double-flat-nf-2.pdf'...
Writing an-introduction-to-chromatic-solfege-00116-enharmonic-double-flat-nf-systems.texi...
Writing an-introduction-to-chromatic-solfege-00116-enharmonic-double-flat-nf-systems.tex...
Writing an-introduction-to-chromatic-solfege-00116-enharmonic-double-flat-nf-systems.count...
Success: compilation successfully completed
