\version "2.18.2"
\include "aaron.ly"
\include "chromatic-template.ly"
\include "lilypond-book-preamble.ly"
\language "aaron"

	\makescore 
  \relative do' {
	\absolute { do' ri'' s di' rai'' s re' ma'' s ri' mai'' s mi' fai'' s fa' si'' s fi' sai'' s sol' li'' s si' lai'' s la' ta'' s li' tai'' s ti' dai''' s do'' }
  }
  #'(( festival-tempo . 170 )( festival-voice . voice_us2_mbrola )( do-compile . #t )( do-play . #f )( mark-irregular-accidentals . #t ))

\paper  {
	#(set! paper-alist (cons '("a4insides" . (cons (* 8 in) (* 3 in))) paper-alist))
	#(set-paper-size "a4insides")
}

